텍스트를 쉽게 분석하는 방법
…
```r
library(stringr)

moon <- raw_moon %>%
  str_replace_all("[^가-힣]", " ") %>%  # 한글만 남기기
  str_squish() %>%                      # 중복 공백 제거
  as_tibble()                           # tibble로 변환

moon
```

---

```
## # A tibble: 117 x 1
##    value                                                              
##    <chr>                                                              
##  1 "정권교체 하겠습니다"                                              
##  2 "정치교체 하겠습니다"                                              
##  3 "시대교체 하겠습니다"                                              
##  4 ""                                                                 
##  5 "불비불명 이라는 고사가 있습니다 남쪽 언덕 나뭇가지에 앉아 년 동안 날지도 울지도 않는 새 그러나 그 새는 한번 날면…
##  6 ""                                                                 
##  7 "그 동안 정치와 거리를 둬 왔습니다 그러나 암울한 시대가 저를 정치로 불러냈습니다 더 이상 남쪽 나뭇가지에 머무를 수…
##  8 ""                                                                 
##  9 ""                                                                 
## 10 "우리나라 대통령 이 되겠습니다"                                    
## # … with 107 more rows
```
---

##### 명사 기준 토큰화

```r
word_noun <- moon %>%
  unnest_tokens(input = value,
                output = word,
                token = extractNoun)

word_noun
```

```
## # A tibble: 1,757 x 1
##    word      
##    <chr>     
##  1 "정권교체"
##  2 "하겠습니"
##  3 "정치"    
##  4 "교체"    
##  5 "하겠습니"
##  6 "시대"    
##  7 "교체"    
##  8 "하겠습니"
##  9 ""        
## 10 "불비불명"
## # … with 1,747 more rows
```
…
##### 단어 빈도 구하기

- 빈도가 높은 명사를 보면 글쓴이가 무엇을 강조했는지 알 수 있음
- `# A tibble: 704 x 2`: 연설문이 704개의 명사로 구성됨

```r
word_noun <- word_noun %>%
  count(word, sort = T) %>%    # 단어 빈도 구해 내림차순 정렬
  filter(str_count(word) > 1)  # 두 글자 이상만 남기기

word_noun
```

```
## # A tibble: 704 x 2
##    word       n
##    <chr>  <int>
##  1 국민      21
##  2 일자리    21
##  3 나라      19
##  4 우리      17
##  5 경제      15
##  6 사회      14
##  7 성장      13
##  8 대통령    12
##  9 정치      12
## 10 하게      12
## # … with 694 more rows
```
…
.pull-left[

##### 띄어쓰기 기준 추출

```r
moon %>%
  unnest_tokens(input = value,
                output = word,
*               token = "words") %>%
  count(word, sort = T) %>%
  filter(str_count(word) > 1)
```

```
## # A tibble: 1,384 x 2
##    word             n
##    <chr>        <int>
##  1 합니다          27
##  2 있습니다        13
##  3 저는            13
##  4 있는            12
##  5 함께            12
##  6 만들겠습니다    11
##  7 일자리          10
##  8 국민의           9
##  9 우리             9
## 10 우리나라         9
## # … with 1,374 more rows
```
…
.pull-right[

##### 명사 추출

```r
moon %>%
  unnest_tokens(input = value,
                output = word,
*               token = extractNoun) %>%
  count(word, sort = T) %>%
  filter(str_count(word) > 1)
```

```
## # A tibble: 704 x 2
##    word       n
##    <chr>  <int>
##  1 국민      21
##  2 일자리    21
##  3 나라      19
##  4 우리      17
##  5 경제      15
##  6 사회      14
##  7 성장      13
##  8 대통령    12
##  9 정치      12
## 10 하게      12
## # … with 694 more rows
```
…
```r
# 기본적인 전처리
library(stringr)
speeches <- bind_speeches %>%
  mutate(value = str_replace_all(value, "[^가-힣]", " "),
         value = str_squish(value))

speeches
```
---

```
## # A tibble: 213 x 2
##    president value                                
##    <chr>     <chr>                                
##  1 moon      "정권교체 하겠습니다"                
##  2 moon      "정치교체 하겠습니다"                
##  3 moon      "시대교체 하겠습니다"                
##  4 moon      ""                                   
##  5 moon      "불비불명 이라는 고사가 있습니다 남쪽 언덕 나뭇가지에 앉아 년 …
##  6 moon      ""                                   
##  7 moon      "그 동안 정치와 거리를 둬 왔습니다 그러나 암울한 시대가 저를 …
##  8 moon      ""                                   
##  9 moon      ""                                   
## 10 moon      "우리나라 대통령 이 되겠습니다"      
## # … with 203 more rows
```
…
##### 연설문 단어 빈도를 Wide form으로 변환하기

```r
library(tidyr)
frequency_wide <- frequency %>%
  pivot_wider(names_from = president,
              values_from = n,
              values_fill = list(n = 0))

frequency_wide
```

```
## # A tibble: 955 x 3
##    word      moon  park
##    <chr>    <int> <int>
##  1 가동         1     0
##  2 가사         1     0
##  3 가슴         2     0
##  4 가족         1     1
##  5 가족구조     1     0
##  6 가지         4     0
##  7 가치         3     1
##  8 각종         1     0
##  9 감당         1     0
## 10 강력         3     0
## # … with 945 more rows
```
…
- 오즈비를 보면 단어가 어떤 텍스트에서 상대적으로 더 많이 사용됐는지 알 수 있음
  - `"moon"`에서 상대적인 비중 클수록 1보다 큰 값
  - `"park"`에서 상대적인 비중 클수록 1보다 작은 값
  - 두 연설문에서 단어 비중 같으면 1

```r
frequency_wide %>%
* arrange(-odds_ratio)
```

```
## # A tibble: 955 x 4
##    word      moon  park odds_ratio
##    <chr>    <int> <int>      <dbl>
##  1 복지국가     8     0       7.12
##  2 세상         6     0       5.54
##  3 여성         6     0       5.54
##  4 정의         6     0       5.54
##  5 강자         5     0       4.75
##  6 공평         5     0       4.75
##  7 대통령의     5     0       4.75
##  8 보통         5     0       4.75
##  9 상생         5     0       4.75
## 10 지방         5     0       4.75
## # … with 945 more rows
```
…
---

#### 막대 그래프 만들기

```r
# 비중이 큰 연설문을 나타낸 변수 추가하기
top10 <- top10 %>%
  mutate(president = ifelse(odds_ratio > 1, "moon", "park"),
         n = ifelse(odds_ratio > 1, moon, park))

top10
```

```
## # A tibble: 20 x 6
##    word      moon  park odds_ratio president     n
##    <chr>    <int> <int>      <dbl> <chr>     <int>
##  1 강자         5     0      4.75  moon          5
##  2 공평         5     0      4.75  moon          5
##  3 대통령의     5     0      4.75  moon          5
##  4 보통         5     0      4.75  moon          5
##  5 복지국가     8     0      7.12  moon          8
##  6 상생         5     0      4.75  moon          5
##  7 세상         6     0      5.54  moon          6
##  8 여러분       2    20      0.113 park         20
##  9 여성         6     0      5.54  moon          6
## 10 정의         6     0      5.54  moon          6
## # … with 10 more rows
```
…
# 단어 빈도 구하기
frequecy <- speeches %>%
  count(president, word) %>%
  filter(str_count(word) > 1)

frequecy
```

---

```
## # A tibble: 1,513 x 3
##    president word      n
##    <chr>     <chr> <int>
##  1 노무현    가슴      2
##  2 노무현    가훈      2
##  3 노무현    갈등      1
##  4 노무현    감옥      1
##  5 노무현    강자      1
##  6 노무현    개편      4
##  7 노무현    개혁      4
##  8 노무현    건국      1
##  9 노무현    경선      1
## 10 노무현    경쟁      1
## # … with 1,503 more rows
```
…
```r
frequecy <- frequecy %>%
  bind_tf_idf(term = word,           # 단어
              document = president,  # 텍스트 구분 기준
              n = n) %>%             # 단어 빈도
  arrange(-tf_idf)

frequecy
```

---

```
## # A tibble: 1,513 x 6
##    president word         n      tf   idf tf_idf
##    <chr>     <chr>    <int>   <dbl> <dbl>  <dbl>
##  1 노무현    공식         6 0.0163  1.39  0.0227
##  2 노무현    비젼         6 0.0163  1.39  0.0227
##  3 노무현    정계         6 0.0163  1.39  0.0227
##  4 이명박    리더십       6 0.0158  1.39  0.0219
##  5 노무현    권력         9 0.0245  0.693 0.0170
##  6 노무현    개편         4 0.0109  1.39  0.0151
##  7 이명박    당원         4 0.0105  1.39  0.0146
##  8 이명박    동지         4 0.0105  1.39  0.0146
##  9 이명박    일류국가     4 0.0105  1.39  0.0146
## 10 박근혜    박근혜       8 0.00962 1.39  0.0133
## # … with 1,503 more rows
```
…
---

##### TF-IDF가 높은 단어 살펴보기

- 텍스트의 특징을 드러내는 중요한 단어
- 각 대통령이 다른 대통령들과 달리 무엇을 강조했는지 알 수 있음

```r
frequecy %>% filter(president == "문재인")
```

```
## # A tibble: 688 x 6
##    president word         n      tf   idf  tf_idf
##    <chr>     <chr>    <int>   <dbl> <dbl>   <dbl>
##  1 문재인    복지국가     8 0.00608 1.39  0.00843
##  2 문재인    여성         6 0.00456 1.39  0.00633
##  3 문재인    공평         5 0.00380 1.39  0.00527
##  4 문재인    담쟁이       5 0.00380 1.39  0.00527
##  5 문재인    대통령의     5 0.00380 1.39  0.00527
##  6 문재인    보통         5 0.00380 1.39  0.00527
##  7 문재인    상생         5 0.00380 1.39  0.00527
##  8 문재인    우리나라    10 0.00760 0.693 0.00527
##  9 문재인    지방         5 0.00380 1.39  0.00527
## 10 문재인    확대        10 0.00760 0.693 0.00527
## # … with 678 more rows
```

---

##### TF-IDF가 높은 단어 살펴보기

- 텍스트의 특징을 드러내는 중요한 단어
- 각 대통령이 다른 대통령들과 달리 무엇을 강조했는지 알 수 있음

```r
frequecy %>% filter(president == "박근혜")
```

```
## # A tibble: 407 x 6
##    president word         n      tf   idf  tf_idf
##    <chr>     <chr>    <int>   <dbl> <dbl>   <dbl>
##  1 박근혜    박근혜       8 0.00962 1.39  0.0133 
##  2 박근혜    정보         5 0.00601 1.39  0.00833
##  3 박근혜    투명         5 0.00601 1.39  0.00833
##  4 박근혜    행복        23 0.0276  0.288 0.00795
##  5 박근혜    교육         9 0.0108  0.693 0.00750
##  6 박근혜    국정운영     4 0.00481 1.39  0.00666
##  7 박근혜    정부        17 0.0204  0.288 0.00588
##  8 박근혜    개개인       3 0.00361 1.39  0.00500
##  9 박근혜    개인         3 0.00361 1.39  0.00500
## 10 박근혜    공개         3 0.00361 1.39  0.00500
## # … with 397 more rows
```

---

##### TF-IDF가 높은 단어 살펴보기

- 텍스트의 특징을 드러내는 중요한 단어
- 각 대통령이 다른 대통령들과 달리 무엇을 강조했는지 알 수 있음

```r
frequecy %>% filter(president == "이명박")
```

```
## # A tibble: 202 x 6
##    president word         n      tf   idf  tf_idf
##    <chr>     <chr>    <int>   <dbl> <dbl>   <dbl>
##  1 이명박    리더십       6 0.0158  1.39  0.0219 
##  2 이명박    당원         4 0.0105  1.39  0.0146 
##  3 이명박    동지         4 0.0105  1.39  0.0146 
##  4 이명박    일류국가     4 0.0105  1.39  0.0146 
##  5 이명박    한나라       7 0.0184  0.693 0.0128 
##  6 이명박    나라        15 0.0395  0.288 0.0114 
##  7 이명박    도약         3 0.00789 1.39  0.0109 
##  8 이명박    일하         3 0.00789 1.39  0.0109 
##  9 이명박    사랑         5 0.0132  0.693 0.00912
## 10 이명박    인생         5 0.0132  0.693 0.00912
## # … with 192 more rows
```

---

##### TF-IDF가 높은 단어 살펴보기

- 텍스트의 특징을 드러내는 중요한 단어
- 각 대통령이 다른 대통령들과 달리 무엇을 강조했는지 알 수 있음

```r
frequecy %>% filter(president == "노무현")
```

```
## # A tibble: 216 x 6
##    president word         n      tf   idf  tf_idf
##    <chr>     <chr>    <int>   <dbl> <dbl>   <dbl>
##  1 노무현    공식         6 0.0163  1.39  0.0227 
##  2 노무현    비젼         6 0.0163  1.39  0.0227 
##  3 노무현    정계         6 0.0163  1.39  0.0227 
##  4 노무현    권력         9 0.0245  0.693 0.0170 
##  5 노무현    개편         4 0.0109  1.39  0.0151 
##  6 노무현    국회의원     3 0.00817 1.39  0.0113 
##  7 노무현    남북대화     3 0.00817 1.39  0.0113 
##  8 노무현    총리         3 0.00817 1.39  0.0113 
##  9 노무현    가훈         2 0.00545 1.39  0.00755
## 10 노무현    개혁         4 0.0109  0.693 0.00755
## # … with 206 more rows
```

---

##### TF-IDF가 낮은 단어 살펴보기

- 역대 대통령들이 공통적으로 사용한 흔한 단어, 범용 단어

```r
frequecy %>%
  filter(president == "문재인") %>%
  arrange(tf_idf)
```

```
## # A tibble: 688 x 6
##    president word       n       tf   idf tf_idf
##    <chr>     <chr>  <int>    <dbl> <dbl>  <dbl>
##  1 문재인    경쟁       6 0.00456      0      0
##  2 문재인    경제      15 0.0114       0      0
##  3 문재인    고통       4 0.00304      0      0
##  4 문재인    과거       1 0.000760     0      0
##  5 문재인    국민      21 0.0160       0      0
##  6 문재인    기회       5 0.00380      0      0
##  7 문재인    대통령    12 0.00913      0      0
##  8 문재인    동안       2 0.00152      0      0
##  9 문재인    들이       9 0.00684      0      0
## 10 문재인    마음       2 0.00152      0      0
## # … with 678 more rows
```

---

##### TF-IDF가 낮은 단어 살펴보기

- 역대 대통령들이 공통적으로 사용한 흔한 단어, 범용 단어

```r
frequecy %>%
  filter(president == "박근혜") %>%
  arrange(tf_idf)
```

```
## # A tibble: 407 x 6
##    president word       n      tf   idf tf_idf
##    <chr>     <chr>  <int>   <dbl> <dbl>  <dbl>
##  1 박근혜    경쟁       1 0.00120     0      0
##  2 박근혜    경제      15 0.0180      0      0
##  3 박근혜    고통       4 0.00481     0      0
##  4 박근혜    과거       2 0.00240     0      0
##  5 박근혜    국민      72 0.0865      0      0
##  6 박근혜    기회       1 0.00120     0      0
##  7 박근혜    대통령     3 0.00361     0      0
##  8 박근혜    동안       3 0.00361     0      0
##  9 박근혜    들이       3 0.00361     0      0
## 10 박근혜    마음       3 0.00361     0      0
## # … with 397 more rows
```
…
comment_pos <- news_comment %>%
  unnest_tokens(input = reply,
                output = word,
                token = SimplePos22,
                drop = F)

comment_pos %>%
  select(reply, word)
```

---

```
## # A tibble: 39,956 x 2
##    reply                                word      
##    <chr>                                <chr>     
##  1 정말 우리 집에 좋은 일이 생겨 기쁘고 행복한 것처럼 나의 일인… 정말/ma   
##  2 정말 우리 집에 좋은 일이 생겨 기쁘고 행복한 것처럼 나의 일인… 우리/np   
##  3 정말 우리 집에 좋은 일이 생겨 기쁘고 행복한 것처럼 나의 일인… 집/nc+에/jc…
##  4 정말 우리 집에 좋은 일이 생겨 기쁘고 행복한 것처럼 나의 일인… 좋/pa+은/et…
##  5 정말 우리 집에 좋은 일이 생겨 기쁘고 행복한 것처럼 나의 일인… 일/nc+이/jc…
##  6 정말 우리 집에 좋은 일이 생겨 기쁘고 행복한 것처럼 나의 일인… 생기/pv+어/e…
##  7 정말 우리 집에 좋은 일이 생겨 기쁘고 행복한 것처럼 나의 일인… 기쁘/pa+고/e…
##  8 정말 우리 집에 좋은 일이 생겨 기쁘고 행복한 것처럼 나의 일인… 행복한/nc 
##  9 정말 우리 집에 좋은 일이 생겨 기쁘고 행복한 것처럼 나의 일인… 것/nb+처럼/j…
## 10 정말 우리 집에 좋은 일이 생겨 기쁘고 행복한 것처럼 나의 일인… 나/np+의/jc…
## # … with 39,946 more rows
```
…
```r
# 품사별로 행 분리
library(tidyr)
comment_pos <- comment_pos %>%
  separate_rows(word, sep = "[+]")

comment_pos %>%
  select(word, reply)
```

---

```
## # A tibble: 70,553 x 2
##    word    reply                                  
##    <chr>   <chr>                                  
##  1 정말/ma 정말 우리 집에 좋은 일이 생겨 기쁘고 행복한 것처럼 나의 일인 양 …
##  2 우리/np 정말 우리 집에 좋은 일이 생겨 기쁘고 행복한 것처럼 나의 일인 양 …
##  3 집/nc   정말 우리 집에 좋은 일이 생겨 기쁘고 행복한 것처럼 나의 일인 양 …
##  4 에/jc   정말 우리 집에 좋은 일이 생겨 기쁘고 행복한 것처럼 나의 일인 양 …
##  5 좋/pa   정말 우리 집에 좋은 일이 생겨 기쁘고 행복한 것처럼 나의 일인 양 …
##  6 은/et   정말 우리 집에 좋은 일이 생겨 기쁘고 행복한 것처럼 나의 일인 양 …
##  7 일/nc   정말 우리 집에 좋은 일이 생겨 기쁘고 행복한 것처럼 나의 일인 양 …
##  8 이/jc   정말 우리 집에 좋은 일이 생겨 기쁘고 행복한 것처럼 나의 일인 양 …
##  9 생기/pv 정말 우리 집에 좋은 일이 생겨 기쁘고 행복한 것처럼 나의 일인 양 …
## 10 어/ec   정말 우리 집에 좋은 일이 생겨 기쁘고 행복한 것처럼 나의 일인 양 …
## # … with 70,543 more rows
```
…
```r
# 명사 추출하기
noun <- comment_pos %>%
  filter(str_detect(word, "/n")) %>%
  mutate(word = str_remove(word, "/.*$"))

noun %>%
  select(word, reply)
```

---

```
## # A tibble: 27,457 x 2
##    word   reply                                   
##    <chr>  <chr>                                   
##  1 우리   정말 우리 집에 좋은 일이 생겨 기쁘고 행복한 것처럼 나의 일인 양 행…
##  2 집     정말 우리 집에 좋은 일이 생겨 기쁘고 행복한 것처럼 나의 일인 양 행…
##  3 일     정말 우리 집에 좋은 일이 생겨 기쁘고 행복한 것처럼 나의 일인 양 행…
##  4 행복한 정말 우리 집에 좋은 일이 생겨 기쁘고 행복한 것처럼 나의 일인 양 행…
##  5 것     정말 우리 집에 좋은 일이 생겨 기쁘고 행복한 것처럼 나의 일인 양 행…
##  6 나     정말 우리 집에 좋은 일이 생겨 기쁘고 행복한 것처럼 나의 일인 양 행…
##  7 일     정말 우리 집에 좋은 일이 생겨 기쁘고 행복한 것처럼 나의 일인 양 행…
##  8 양     정말 우리 집에 좋은 일이 생겨 기쁘고 행복한 것처럼 나의 일인 양 행…
##  9 행복   정말 우리 집에 좋은 일이 생겨 기쁘고 행복한 것처럼 나의 일인 양 행…
## 10 행복   정말 우리 집에 좋은 일이 생겨 기쁘고 행복한 것처럼 나의 일인 양 행…
## # … with 27,447 more rows
```
…
```r
# 동사, 형용사 추출하기
pvpa <- comment_pos %>%
  filter(str_detect(word, "/pv|/pa")) %>%         # "/pv", "/pa" 추출
  mutate(word = str_replace(word, "/.*$", "다"))  # "/"로 시작 문자를 "다"로 바꾸기

pvpa %>%
  select(word, reply)
```

---

```
## # A tibble: 5,317 x 2
##    word      reply                                
##    <chr>     <chr>                                
##  1 좋다      정말 우리 집에 좋은 일이 생겨 기쁘고 행복한 것처럼 나의 일인 …
##  2 생기다    정말 우리 집에 좋은 일이 생겨 기쁘고 행복한 것처럼 나의 일인 …
##  3 기쁘다    정말 우리 집에 좋은 일이 생겨 기쁘고 행복한 것처럼 나의 일인 …
##  4 축하드리다… 정말 우리 집에 좋은 일이 생겨 기쁘고 행복한 것처럼 나의 일인 …
##  5 기쁘다    정말 우리 집에 좋은 일이 생겨 기쁘고 행복한 것처럼 나의 일인 …
##  6 기쁘다    와 너무 기쁘다 이 시국에 정말 내 일같이 기쁘고 감사하다 축하드…
##  7 기쁘다    와 너무 기쁘다 이 시국에 정말 내 일같이 기쁘고 감사하다 축하드…
##  8 축하드리다… 와 너무 기쁘다 이 시국에 정말 내 일같이 기쁘고 감사하다 축하드…
##  9 불다      우리나라의 영화감독분들 그리고 앞으로 그 꿈을 그리는 분들에게 큰…
## 10 크다      우리나라의 영화감독분들 그리고 앞으로 그 꿈을 그리는 분들에게 큰…
## # … with 5,307 more rows
```
…
```r
# 품사 결합
comment <- bind_rows(noun, pvpa) %>%
  filter(str_count(word) >= 2) %>%
  arrange(id)

comment %>%
  select(word, reply)
```

---

```
## # A tibble: 26,860 x 2
##    word      reply                                
##    <chr>     <chr>                                
##  1 우리      정말 우리 집에 좋은 일이 생겨 기쁘고 행복한 것처럼 나의 일인 …
##  2 행복한    정말 우리 집에 좋은 일이 생겨 기쁘고 행복한 것처럼 나의 일인 …
##  3 행복      정말 우리 집에 좋은 일이 생겨 기쁘고 행복한 것처럼 나의 일인 …
##  4 행복      정말 우리 집에 좋은 일이 생겨 기쁘고 행복한 것처럼 나의 일인 …
##  5 좋다      정말 우리 집에 좋은 일이 생겨 기쁘고 행복한 것처럼 나의 일인 …
##  6 생기다    정말 우리 집에 좋은 일이 생겨 기쁘고 행복한 것처럼 나의 일인 …
##  7 기쁘다    정말 우리 집에 좋은 일이 생겨 기쁘고 행복한 것처럼 나의 일인 …
##  8 축하드리다… 정말 우리 집에 좋은 일이 생겨 기쁘고 행복한 것처럼 나의 일인 …
##  9 기쁘다    정말 우리 집에 좋은 일이 생겨 기쁘고 행복한 것처럼 나의 일인 …
## 10 시국      와 너무 기쁘다 이 시국에 정말 내 일같이 기쁘고 감사하다 축하드…
## # … with 26,850 more rows
```
…
```r
install.packages("widyr")
library(widyr)

pair <- comment %>%
  pairwise_count(item = word,   # 단어
                 feature = id,   # 텍스트 구분 기준
                 sort = T)       # 빈도 높은 순 정렬
pair
```

---

```
## # A tibble: 245,920 x 3
##    item1      item2      n
##    <chr>      <chr>  <dbl>
##  1 영화       기생충   111
##  2 기생충     영화     111
##  3 감독       봉준호    86
##  4 봉준호     감독      86
##  5 감독님     봉준호    66
##  6 봉준호     감독님    66
##  7 만들다     영화      57
##  8 영화       만들다    57
##  9 기생충     봉준호    54
## 10 블랙리스트 감독      54
## # … with 245,910 more rows
```
…
---

##### 특정 단어와 자주 함께 사용된 단어 살펴보기

.pull-left[

```r
pair %>% filter(item1 == "영화")
```

```
## # A tibble: 2,313 x 3
##    item1 item2        n
##    <chr> <chr>    <dbl>
##  1 영화  기생충     111
##  2 영화  만들다      57
##  3 영화  봉준호      52
##  4 영화  받다        48
##  5 영화  한국        46
##  6 영화  아카데미    42
##  7 영화  같다        41
##  8 영화  감독        39
##  9 영화  아니다      38
## 10 영화  좋다        35
## # … with 2,303 more rows
```
]

.pull-right[

```r
pair %>% filter(item1 == "봉준호")
```

```
## # A tibble: 1,579 x 3
##    item1  item2          n
##    <chr>  <chr>      <dbl>
##  1 봉준호 감독          86
##  2 봉준호 감독님        66
##  3 봉준호 기생충        54
##  4 봉준호 영화          52
##  5 봉준호 블랙리스트    48
##  6 봉준호 대한민국      38
##  7 봉준호 자랑          33
##  8 봉준호 축하드리다    30
##  9 봉준호 송강호        30
## 10 봉준호 축하          25
## # … with 1,569 more rows
```
…
word_cors
```

<svg viewBox="0 0 352 512" xmlns="http://www.w3.org/2000/svg" style="height:1em;fill:currentColor;position:relative;display:inline-block;top:.1em;">  [ comment ]  <path d="M176 80c-52.94 0-96 43.06-96 96 0 8.84 7.16 16 16 16s16-7.16 16-16c0-35.3 28.72-64 64-64 8.84 0 16-7.16 16-16s-7.16-16-16-16zM96.06 459.17c0 3.15.93 6.22 2.68 8.84l24.51 36.84c2.97 4.46 7.97 7.14 13.32 7.14h78.85c5.36 0 10.36-2.68 13.32-7.14l24.51-36.84c1.74-2.62 2.67-5.7 2.68-8.84l.05-43.18H96.02l.04 43.18zM176 0C73.72 0 0 82.97 0 176c0 44.37 16.45 84.85 43.56 115.78 16.64 18.99 42.74 58.8 52.42 92.16v.06h48v-.12c-.01-4.77-.72-9.51-2.15-14.07-5.59-17.81-22.82-64.77-62.17-109.67-20.54-23.43-31.52-53.15-31.61-84.14-.2-73.64 59.67-128 127.95-128 70.58 0 128 57.42 128 128 0 30.97-11.24 60.85-31.65 84.14-39.11 44.61-56.42 91.47-62.1 109.46a47.507 47.507 0 0 0-2.22 14.3v.1h48v-.05c9.68-33.37 35.78-73.18 52.42-92.16C335.55 260.85 352 220.37 352 176 352 78.8 273.2 0 176 0z"></path></svg>  `add_count()` 원자료에 빈도 나타낸 변수 추가

]

.pull-right[

```
## # A tibble: 26,732 x 3
##    item1      item2      correlation
##    <chr>      <chr>            <dbl>
##  1 올리다     블랙리스트       0.478
##  2 블랙리스트 올리다           0.478
##  3 역사       쓰다             0.370
##  4 쓰다       역사             0.370
##  5 박근혜     블랙리스트       0.322
##  6 블랙리스트 박근혜           0.322
##  7 가족       조국             0.306
##  8 조국       가족             0.306
##  9 작품상     감독상           0.276
## 10 감독상     작품상           0.276
## # … with 26,722 more rows
```
]

---

#### 특정 단어와 관련성이 큰 단어 살펴보기

.pull-left[

```r
word_cors %>%
  filter(item1 == "대한민국")
```

```
## # A tibble: 163 x 3
##    item1    item2  correlation
##    <chr>    <chr>        <dbl>
##  1 대한민국 국민        0.182 
##  2 대한민국 자랑        0.158 
##  3 대한민국 위상        0.149 
##  4 대한민국 국격        0.129 
##  5 대한민국 위대한      0.100 
##  6 대한민국 세계        0.0910
##  7 대한민국 문화        0.0757
##  8 대한민국 감사합      0.0724
##  9 대한민국 나라        0.0715
## 10 대한민국 오늘        0.0715
## # … with 153 more rows
```
…
